{
    "KPlugin": {
        "Authors": [
            {
                "Email": "mart@kde.org",
                "Name": "Marco Martin",
                "Name[ar]": "Marco Martin",
                "Name[az]": "Marco Martin",
                "Name[bg]": "Marco Martin",
                "Name[ca@valencia]": "Marco Martin",
                "Name[ca]": "Marco Martin",
                "Name[cs]": "Marco Martin",
                "Name[da]": "Marco Martin",
                "Name[de]": "Marco Martin",
                "Name[en_GB]": "Marco Martin",
                "Name[es]": "Marco Martin",
                "Name[eu]": "Marco Martin",
                "Name[fi]": "Marco Martin",
                "Name[fr]": "Marco Martin",
                "Name[hu]": "Marco Martin",
                "Name[ia]": "Marco Martin",
                "Name[id]": "Marco Martin",
                "Name[is]": "Marco Martin",
                "Name[it]": "Marco Martin",
                "Name[ja]": "Marco Martin",
                "Name[ka]": "მაკრო მარტინი",
                "Name[ko]": "Marco Martin",
                "Name[lt]": "Marco Martin",
                "Name[nl]": "Marco Martin",
                "Name[nn]": "Marco Martin",
                "Name[pl]": "Marco Martin",
                "Name[pt]": "Marco Martin",
                "Name[pt_BR]": "Marco Martin",
                "Name[ro]": "Marco Martin",
                "Name[ru]": "Marco Martin",
                "Name[sk]": "Marco Martin",
                "Name[sl]": "Marco Martin",
                "Name[sv]": "Marco Martin",
                "Name[ta]": "மார்க்கோ மார்ட்டின்",
                "Name[tr]": "Marco Martin",
                "Name[uk]": "Marco Martin",
                "Name[vi]": "Marco Martin",
                "Name[x-test]": "xxMarco Martinxx",
                "Name[zh_CN]": "Marco Martin"
            }
        ],
        "Category": "",
        "Description": "Desktop view furniture",
        "Description[ar]": "إعداد عرض مساحة العمل ",
        "Description[az]": "İş masası görünüşü tərkibləri",
        "Description[bg]": "Компоненти на работния плот",
        "Description[ca@valencia]": "Accessori de vista de l'escriptori",
        "Description[ca]": "Accessori de vista de l'escriptori",
        "Description[cs]": "Zobrazení plochy",
        "Description[da]": "Møbler til skrivebordsvisning",
        "Description[de]": "Einrichtung der Ansicht einer Arbeitsfläche",
        "Description[en_GB]": "Desktop view furniture",
        "Description[es]": "Accesorio de vista del escritorio",
        "Description[eu]": "Mahaigain ikuspegi osagarria",
        "Description[fi]": "Työpöydän sisustus",
        "Description[fr]": "Aménagement du bureau",
        "Description[hu]": "Munkaasztal nézet bútor",
        "Description[ia]": "Vista de accessorio de Scriptorio",
        "Description[id]": "Furnitur tampilan desktop",
        "Description[it]": "Componenti della vista del desktop",
        "Description[ja]": "デスクトップビュー",
        "Description[ka]": "სამუშაო მაგიდის მორთულობის ჩვენება",
        "Description[ko]": "바탕 화면 보기 부속 프로그램",
        "Description[nl]": "Meubilair voor weergave op het bureaublad",
        "Description[nn]": "Skrivebords­vising­møblar",
        "Description[pa]": "ਡੈਸਕਟਾਪ ਵੇਖਣ ਫਰਨੀਚਰ",
        "Description[pl]": "Widok umeblowania pulpitu",
        "Description[pt]": "Disposição do ecrã",
        "Description[pt_BR]": "Acessório de visualização da área de trabalho",
        "Description[ro]": "Mobilier pentru vizualizarea biroului",
        "Description[ru]": "Компоненты пользовательского интерфейса Plasma",
        "Description[sk]": "Zobrazenie plochy nábytok",
        "Description[sl]": "Pohištvo prikaza namizja",
        "Description[sv]": "Visa skrivbordsmöbler",
        "Description[ta]": "பணிமேடை பிளாஸ்மாய்டுகள்",
        "Description[tr]": "Masaüstü görünümü mobilyası",
        "Description[uk]": "Компоненти для перегляду стільниці",
        "Description[vi]": "Đồ đạc trong khung xem bàn làm việc",
        "Description[x-test]": "xxDesktop view furniturexx",
        "Description[zh_CN]": "桌面视图小工具",
        "Icon": "user-desktop",
        "Id": "org.kde.plasma.desktop",
        "License": "GPL-2.0+",
        "Name": "Desktop",
        "Name[af]": "Werkskerm",
        "Name[ar]": "سطح المكتب",
        "Name[ast]": "Escritoriu",
        "Name[az]": "İş masası",
        "Name[be@latin]": "Rabočy stoł",
        "Name[be]": "Працоўны стол",
        "Name[bg]": "Работен плот",
        "Name[bn]": "ডেস্কটপ",
        "Name[bn_IN]": "ডেস্কটপ",
        "Name[br]": "Gorretaol",
        "Name[bs]": "Radna površina",
        "Name[ca@valencia]": "Escriptori",
        "Name[ca]": "Escriptori",
        "Name[cs]": "Pracovní plocha",
        "Name[csb]": "Pùlt",
        "Name[cy]": "Penbwrdd",
        "Name[da]": "Skrivebord",
        "Name[de]": "Arbeitsfläche",
        "Name[el]": "Επιφάνεια εργασίας",
        "Name[en_GB]": "Desktop",
        "Name[eo]": "Labortablo",
        "Name[es]": "Escritorio",
        "Name[et]": "Töölaud",
        "Name[eu]": "Mahaigaina",
        "Name[fa]": "رومیزی",
        "Name[fi]": "Työpöytä",
        "Name[fr]": "Bureau",
        "Name[fy]": "Buroblêd",
        "Name[ga]": "Deasc",
        "Name[gl]": "Escritorio",
        "Name[gu]": "ડેસ્કટોપ",
        "Name[he]": "שולחן עבודה",
        "Name[hi]": "डेस्कटॉप",
        "Name[hne]": "डेस्कटाप",
        "Name[hr]": "Radna površina",
        "Name[hsb]": "Dźěłowy powjerch",
        "Name[hu]": "Munkaasztal",
        "Name[ia]": "Scriptorio",
        "Name[id]": "Desktop",
        "Name[is]": "Skjáborð",
        "Name[it]": "Desktop",
        "Name[ja]": "デスクトップ",
        "Name[ka]": "სამუშაო მაგიდა",
        "Name[kk]": "Жұмыс үстелі",
        "Name[kn]": "ಗಣಕತೆರೆ",
        "Name[ko]": "바탕 화면",
        "Name[ku]": "Sermasê",
        "Name[lt]": "Darbalaukis",
        "Name[mai]": "डेस्कटाप",
        "Name[mk]": "Работна површина",
        "Name[ml]": "പണിയിടം",
        "Name[mr]": "डेस्कटॉप",
        "Name[ms]": "Ruang Kerja",
        "Name[nb]": "Skrivebord",
        "Name[nds]": "Schriefdisch",
        "Name[ne]": "डेस्कटप",
        "Name[nl]": "Bureaublad",
        "Name[nn]": "Skrivebord",
        "Name[oc]": "Burèu",
        "Name[or]": "ଡ଼େସ୍କଟପ",
        "Name[pa]": "ਡੈਸਕਟਾਪ",
        "Name[pl]": "Pulpit",
        "Name[pt]": "Ambiente de Trabalho",
        "Name[pt_BR]": "Área de trabalho",
        "Name[ro]": "Birou",
        "Name[ru]": "Рабочий стол",
        "Name[se]": "Čállinbeavdi",
        "Name[si]": "වැඩතලය",
        "Name[sk]": "Plocha",
        "Name[sl]": "Namizje",
        "Name[sr@ijekavian]": "Површ",
        "Name[sr@ijekavianlatin]": "Površ",
        "Name[sr@latin]": "Površ",
        "Name[sr]": "Површ",
        "Name[sv]": "Skrivbord",
        "Name[ta]": "பணிமேடை",
        "Name[te]": "రంగస్ఠలం",
        "Name[tg]": "Мизи корӣ",
        "Name[th]": "พื้นที่ทำงาน",
        "Name[tr]": "Masaüstü",
        "Name[uk]": "Стільниця",
        "Name[uz@cyrillic]": "Иш столи",
        "Name[uz]": "Ish stoli",
        "Name[vi]": "Bàn làm việc",
        "Name[wa]": "Sicribanne",
        "Name[x-test]": "xxDesktopxx",
        "Name[xh]": "Desktop",
        "Name[zh_CN]": "桌面",
        "Name[zh_TW]": "桌面",
        "ServiceTypes": [
            "Plasma/Shell"
        ],
        "Version": "",
        "Website": "https://www.kde.org/plasma-desktop"
    },
    "Keywords": "",
    "X-KDE-ParentApp": "org.kde.plasmashell",
    "X-Plasma-MainScript": "layout.js"
}
